^C:\USERS\TAKUTO\DESKTOP\BASECROSS-MASTER\SIMPLSAMPLE013\TEMP\DX11\DEBUG\APP.OBJ|C:\USERS\TAKUTO\DESKTOP\BASECROSS-MASTER\SIMPLSAMPLE013\TEMP\DX11\DEBUG\BASECROSSDX11.RES|C:\USERS\TAKUTO\DESKTOP\BASECROSS-MASTER\SIMPLSAMPLE013\TEMP\DX11\DEBUG\BASEHELPER.OBJ|C:\USERS\TAKUTO\DESKTOP\BASECROSS-MASTER\SIMPLSAMPLE013\TEMP\DX11\DEBUG\CHARACTER.OBJ|C:\USERS\TAKUTO\DESKTOP\BASECROSS-MASTER\SIMPLSAMPLE013\TEMP\DX11\DEBUG\DEVICERESOURCES.OBJ|C:\USERS\TAKUTO\DESKTOP\BASECROSS-MASTER\SIMPLSAMPLE013\TEMP\DX11\DEBUG\MESHHELPER.OBJ|C:\USERS\TAKUTO\DESKTOP\BASECROSS-MASTER\SIMPLSAMPLE013\TEMP\DX11\DEBUG\PROJECTSHADER.OBJ|C:\USERS\TAKUTO\DESKTOP\BASECROSS-MASTER\SIMPLSAMPLE013\TEMP\DX11\DEBUG\SCENE.OBJ|C:\USERS\TAKUTO\DESKTOP\BASECROSS-MASTER\SIMPLSAMPLE013\TEMP\DX11\DEBUG\STDAFX.OBJ|C:\USERS\TAKUTO\DESKTOP\BASECROSS-MASTER\SIMPLSAMPLE013\TEMP\DX11\DEBUG\VERTEXHELPER.OBJ|C:\USERS\TAKUTO\DESKTOP\BASECROSS-MASTER\SIMPLSAMPLE013\TEMP\DX11\DEBUG\WINMAIN.OBJ|C:\USERS\TAKUTO\DESKTOP\BASECROSS-MASTER\SIMPLSAMPLE013\TEMP\DX11\DEBUG\XMLDOC.OBJ
C:\WINDOWS\GLOBALIZATION\SORTING\SORTDEFAULT.NLS
C:\PROGRAM FILES (X86)\WINDOWS KITS\8.1\LIB\WINV6.3\UM\X86\KERNEL32.LIB
C:\PROGRAM FILES (X86)\WINDOWS KITS\8.1\LIB\WINV6.3\UM\X86\USER32.LIB
C:\PROGRAM FILES (X86)\WINDOWS KITS\8.1\LIB\WINV6.3\UM\X86\GDI32.LIB
C:\PROGRAM FILES (X86)\WINDOWS KITS\8.1\LIB\WINV6.3\UM\X86\WINSPOOL.LIB
C:\PROGRAM FILES (X86)\WINDOWS KITS\8.1\LIB\WINV6.3\UM\X86\COMDLG32.LIB
C:\PROGRAM FILES (X86)\WINDOWS KITS\8.1\LIB\WINV6.3\UM\X86\ADVAPI32.LIB
C:\PROGRAM FILES (X86)\WINDOWS KITS\8.1\LIB\WINV6.3\UM\X86\SHELL32.LIB
C:\PROGRAM FILES (X86)\WINDOWS KITS\8.1\LIB\WINV6.3\UM\X86\OLE32.LIB
C:\PROGRAM FILES (X86)\WINDOWS KITS\8.1\LIB\WINV6.3\UM\X86\OLEAUT32.LIB
C:\PROGRAM FILES (X86)\WINDOWS KITS\8.1\LIB\WINV6.3\UM\X86\UUID.LIB
C:\PROGRAM FILES (X86)\WINDOWS KITS\8.1\LIB\WINV6.3\UM\X86\ODBC32.LIB
C:\PROGRAM FILES (X86)\WINDOWS KITS\8.1\LIB\WINV6.3\UM\X86\ODBCCP32.LIB
C:\USERS\TAKUTO\DESKTOP\BASECROSS-MASTER\SIMPLSAMPLE013\TEMP\DX11\DEBUG\BASECROSSDX11.RES
C:\USERS\TAKUTO\DESKTOP\BASECROSS-MASTER\SIMPLSAMPLE013\TEMP\DX11\DEBUG\DEVICERESOURCES.OBJ
C:\USERS\TAKUTO\DESKTOP\BASECROSS-MASTER\SIMPLSAMPLE013\TEMP\DX11\DEBUG\VERTEXHELPER.OBJ
C:\USERS\TAKUTO\DESKTOP\BASECROSS-MASTER\SIMPLSAMPLE013\TEMP\DX11\DEBUG\APP.OBJ
C:\USERS\TAKUTO\DESKTOP\BASECROSS-MASTER\SIMPLSAMPLE013\TEMP\DX11\DEBUG\BASEHELPER.OBJ
C:\USERS\TAKUTO\DESKTOP\BASECROSS-MASTER\SIMPLSAMPLE013\TEMP\DX11\DEBUG\MESHHELPER.OBJ
C:\USERS\TAKUTO\DESKTOP\BASECROSS-MASTER\SIMPLSAMPLE013\TEMP\DX11\DEBUG\XMLDOC.OBJ
C:\USERS\TAKUTO\DESKTOP\BASECROSS-MASTER\SIMPLSAMPLE013\TEMP\DX11\DEBUG\CHARACTER.OBJ
C:\USERS\TAKUTO\DESKTOP\BASECROSS-MASTER\SIMPLSAMPLE013\TEMP\DX11\DEBUG\PROJECTSHADER.OBJ
C:\USERS\TAKUTO\DESKTOP\BASECROSS-MASTER\SIMPLSAMPLE013\TEMP\DX11\DEBUG\SCENE.OBJ
C:\USERS\TAKUTO\DESKTOP\BASECROSS-MASTER\SIMPLSAMPLE013\TEMP\DX11\DEBUG\STDAFX.OBJ
C:\USERS\TAKUTO\DESKTOP\BASECROSS-MASTER\SIMPLSAMPLE013\TEMP\DX11\DEBUG\WINMAIN.OBJ
C:\PROGRAM FILES (X86)\MICROSOFT VISUAL STUDIO 14.0\VC\ATLMFC\LIB\ATLS.LIB
C:\PROGRAM FILES (X86)\WINDOWS KITS\8.1\LIB\WINV6.3\UM\X86\SHLWAPI.LIB
C:\PROGRAM FILES (X86)\MICROSOFT VISUAL STUDIO 14.0\VC\LIB\LIBCPMTD.LIB
C:\PROGRAM FILES (X86)\WINDOWS KITS\8.1\LIB\WINV6.3\UM\X86\D3D11.LIB
C:\PROGRAM FILES (X86)\WINDOWS KITS\8.1\LIB\WINV6.3\UM\X86\D2D1.LIB
C:\PROGRAM FILES (X86)\WINDOWS KITS\8.1\LIB\WINV6.3\UM\X86\DWRITE.LIB
C:\PROGRAM FILES (X86)\WINDOWS KITS\8.1\LIB\WINV6.3\UM\X86\DXGUID.LIB
C:\PROGRAM FILES (X86)\WINDOWS KITS\8.1\LIB\WINV6.3\UM\X86\WINMM.LIB
C:\PROGRAM FILES (X86)\WINDOWS KITS\8.1\LIB\WINV6.3\UM\X86\COMCTL32.LIB
C:\USERS\TAKUTO\DESKTOP\BASECROSS-MASTER\LIBS\LIB\DX11\DEBUG\DIRECTXTEX.LIB
C:\PROGRAM FILES (X86)\WINDOWS KITS\8.1\LIB\WINV6.3\UM\X86\XINPUT.LIB
C:\PROGRAM FILES (X86)\WINDOWS KITS\8.1\LIB\WINV6.3\UM\X86\XAUDIO2.LIB
C:\PROGRAM FILES (X86)\WINDOWS KITS\8.1\LIB\WINV6.3\UM\X86\MFPLAT.LIB
C:\PROGRAM FILES (X86)\WINDOWS KITS\8.1\LIB\WINV6.3\UM\X86\MFREADWRITE.LIB
C:\PROGRAM FILES (X86)\WINDOWS KITS\8.1\LIB\WINV6.3\UM\X86\WINHTTP.LIB
C:\PROGRAM FILES (X86)\MICROSOFT VISUAL STUDIO 14.0\VC\LIB\COMSUPPWD.LIB
C:\PROGRAM FILES (X86)\MICROSOFT VISUAL STUDIO 14.0\VC\LIB\LIBCMTD.LIB
C:\PROGRAM FILES (X86)\MICROSOFT VISUAL STUDIO 14.0\VC\LIB\OLDNAMES.LIB
C:\PROGRAM FILES (X86)\MICROSOFT VISUAL STUDIO 14.0\VC\LIB\LIBCONCRTD.LIB
C:\PROGRAM FILES (X86)\MICROSOFT VISUAL STUDIO 14.0\VC\LIB\VCOMPD.LIB
C:\PROGRAM FILES (X86)\MICROSOFT VISUAL STUDIO 14.0\VC\LIB\LIBVCRUNTIMED.LIB
C:\PROGRAM FILES (X86)\WINDOWS KITS\10\LIB\10.0.10240.0\UCRT\X86\LIBUCRTD.LIB
C:\PROGRAM FILES (X86)\WINDOWS KITS\8.1\BIN\X86\RC.EXE
C:\PROGRAM FILES (X86)\MICROSOFT VISUAL STUDIO 14.0\VC\BIN\CVTRES.EXE
C:\WINDOWS\SYSTEM32\TZRES.DLL
