^C:\USERS\TAKUTO\DESKTOP\BASECROSS-MASTER\SIMPLSAMPLE013\TEMP\DIRECTXTX\DX11\DEBUG\BC.OBJ|C:\USERS\TAKUTO\DESKTOP\BASECROSS-MASTER\SIMPLSAMPLE013\TEMP\DIRECTXTX\DX11\DEBUG\BC4BC5.OBJ|C:\USERS\TAKUTO\DESKTOP\BASECROSS-MASTER\SIMPLSAMPLE013\TEMP\DIRECTXTX\DX11\DEBUG\BC6HBC7.OBJ|C:\USERS\TAKUTO\DESKTOP\BASECROSS-MASTER\SIMPLSAMPLE013\TEMP\DIRECTXTX\DX11\DEBUG\BCDIRECTCOMPUTE.OBJ|C:\USERS\TAKUTO\DESKTOP\BASECROSS-MASTER\SIMPLSAMPLE013\TEMP\DIRECTXTX\DX11\DEBUG\DIRECTXTEXCOMPRESS.OBJ|C:\USERS\TAKUTO\DESKTOP\BASECROSS-MASTER\SIMPLSAMPLE013\TEMP\DIRECTXTX\DX11\DEBUG\DIRECTXTEXCOMPRESSGPU.OBJ|C:\USERS\TAKUTO\DESKTOP\BASECROSS-MASTER\SIMPLSAMPLE013\TEMP\DIRECTXTX\DX11\DEBUG\DIRECTXTEXCONVERT.OBJ|C:\USERS\TAKUTO\DESKTOP\BASECROSS-MASTER\SIMPLSAMPLE013\TEMP\DIRECTXTX\DX11\DEBUG\DIRECTXTEXD3D11.OBJ|C:\USERS\TAKUTO\DESKTOP\BASECROSS-MASTER\SIMPLSAMPLE013\TEMP\DIRECTXTX\DX11\DEBUG\DIRECTXTEXDDS.OBJ|C:\USERS\TAKUTO\DESKTOP\BASECROSS-MASTER\SIMPLSAMPLE013\TEMP\DIRECTXTX\DX11\DEBUG\DIRECTXTEXFLIPROTATE.OBJ|C:\USERS\TAKUTO\DESKTOP\BASECROSS-MASTER\SIMPLSAMPLE013\TEMP\DIRECTXTX\DX11\DEBUG\DIRECTXTEXIMAGE.OBJ|C:\USERS\TAKUTO\DESKTOP\BASECROSS-MASTER\SIMPLSAMPLE013\TEMP\DIRECTXTX\DX11\DEBUG\DIRECTXTEXMIPMAPS.OBJ|C:\USERS\TAKUTO\DESKTOP\BASECROSS-MASTER\SIMPLSAMPLE013\TEMP\DIRECTXTX\DX11\DEBUG\DIRECTXTEXMISC.OBJ|C:\USERS\TAKUTO\DESKTOP\BASECROSS-MASTER\SIMPLSAMPLE013\TEMP\DIRECTXTX\DX11\DEBUG\DIRECTXTEXNORMALMAPS.OBJ|C:\USERS\TAKUTO\DESKTOP\BASECROSS-MASTER\SIMPLSAMPLE013\TEMP\DIRECTXTX\DX11\DEBUG\DIRECTXTEXPMALPHA.OBJ|C:\USERS\TAKUTO\DESKTOP\BASECROSS-MASTER\SIMPLSAMPLE013\TEMP\DIRECTXTX\DX11\DEBUG\DIRECTXTEXRESIZE.OBJ|C:\USERS\TAKUTO\DESKTOP\BASECROSS-MASTER\SIMPLSAMPLE013\TEMP\DIRECTXTX\DX11\DEBUG\DIRECTXTEXTGA.OBJ|C:\USERS\TAKUTO\DESKTOP\BASECROSS-MASTER\SIMPLSAMPLE013\TEMP\DIRECTXTX\DX11\DEBUG\DIRECTXTEXUTIL.OBJ|C:\USERS\TAKUTO\DESKTOP\BASECROSS-MASTER\SIMPLSAMPLE013\TEMP\DIRECTXTX\DX11\DEBUG\DIRECTXTEXWIC.OBJ
C:\WINDOWS\GLOBALIZATION\SORTING\SORTDEFAULT.NLS
C:\USERS\TAKUTO\DESKTOP\BASECROSS-MASTER\SIMPLSAMPLE013\TEMP\DIRECTXTX\DX11\DEBUG\BC.OBJ
C:\WINDOWS\SYSTEM32\TZRES.DLL
C:\USERS\TAKUTO\DESKTOP\BASECROSS-MASTER\SIMPLSAMPLE013\TEMP\DIRECTXTX\DX11\DEBUG\BC4BC5.OBJ
C:\USERS\TAKUTO\DESKTOP\BASECROSS-MASTER\SIMPLSAMPLE013\TEMP\DIRECTXTX\DX11\DEBUG\BC6HBC7.OBJ
C:\USERS\TAKUTO\DESKTOP\BASECROSS-MASTER\SIMPLSAMPLE013\TEMP\DIRECTXTX\DX11\DEBUG\BCDIRECTCOMPUTE.OBJ
C:\USERS\TAKUTO\DESKTOP\BASECROSS-MASTER\SIMPLSAMPLE013\TEMP\DIRECTXTX\DX11\DEBUG\DIRECTXTEXCOMPRESS.OBJ
C:\USERS\TAKUTO\DESKTOP\BASECROSS-MASTER\SIMPLSAMPLE013\TEMP\DIRECTXTX\DX11\DEBUG\DIRECTXTEXCOMPRESSGPU.OBJ
C:\USERS\TAKUTO\DESKTOP\BASECROSS-MASTER\SIMPLSAMPLE013\TEMP\DIRECTXTX\DX11\DEBUG\DIRECTXTEXCONVERT.OBJ
C:\USERS\TAKUTO\DESKTOP\BASECROSS-MASTER\SIMPLSAMPLE013\TEMP\DIRECTXTX\DX11\DEBUG\DIRECTXTEXD3D11.OBJ
C:\USERS\TAKUTO\DESKTOP\BASECROSS-MASTER\SIMPLSAMPLE013\TEMP\DIRECTXTX\DX11\DEBUG\DIRECTXTEXDDS.OBJ
C:\USERS\TAKUTO\DESKTOP\BASECROSS-MASTER\SIMPLSAMPLE013\TEMP\DIRECTXTX\DX11\DEBUG\DIRECTXTEXFLIPROTATE.OBJ
C:\USERS\TAKUTO\DESKTOP\BASECROSS-MASTER\SIMPLSAMPLE013\TEMP\DIRECTXTX\DX11\DEBUG\DIRECTXTEXIMAGE.OBJ
C:\USERS\TAKUTO\DESKTOP\BASECROSS-MASTER\SIMPLSAMPLE013\TEMP\DIRECTXTX\DX11\DEBUG\DIRECTXTEXMIPMAPS.OBJ
C:\USERS\TAKUTO\DESKTOP\BASECROSS-MASTER\SIMPLSAMPLE013\TEMP\DIRECTXTX\DX11\DEBUG\DIRECTXTEXMISC.OBJ
C:\USERS\TAKUTO\DESKTOP\BASECROSS-MASTER\SIMPLSAMPLE013\TEMP\DIRECTXTX\DX11\DEBUG\DIRECTXTEXNORMALMAPS.OBJ
C:\USERS\TAKUTO\DESKTOP\BASECROSS-MASTER\SIMPLSAMPLE013\TEMP\DIRECTXTX\DX11\DEBUG\DIRECTXTEXPMALPHA.OBJ
C:\USERS\TAKUTO\DESKTOP\BASECROSS-MASTER\SIMPLSAMPLE013\TEMP\DIRECTXTX\DX11\DEBUG\DIRECTXTEXRESIZE.OBJ
C:\USERS\TAKUTO\DESKTOP\BASECROSS-MASTER\SIMPLSAMPLE013\TEMP\DIRECTXTX\DX11\DEBUG\DIRECTXTEXTGA.OBJ
C:\USERS\TAKUTO\DESKTOP\BASECROSS-MASTER\SIMPLSAMPLE013\TEMP\DIRECTXTX\DX11\DEBUG\DIRECTXTEXUTIL.OBJ
C:\USERS\TAKUTO\DESKTOP\BASECROSS-MASTER\SIMPLSAMPLE013\TEMP\DIRECTXTX\DX11\DEBUG\DIRECTXTEXWIC.OBJ
