^C:\USERS\TAKUTO\DESKTOP\BASECROSS-MASTER\SIMPLSAMPLE015\DXSHARED\SHADERS\PSPCSPRITE.HLSL
/nologo /E"main" /T ps_5_0 /Fo "C:\Users\takuto\Desktop\BaseCross-master\SimplSample015\media\Shaders\PSPCSprite.cso" C:\USERS\TAKUTO\DESKTOP\BASECROSS-MASTER\SIMPLSAMPLE015\DXSHARED\SHADERS\PSPCSPRITE.HLSL
^C:\USERS\TAKUTO\DESKTOP\BASECROSS-MASTER\SIMPLSAMPLE015\DXSHARED\SHADERS\PSPCSTATIC.HLSL
/nologo /E"main" /T ps_5_0 /Fo "C:\Users\takuto\Desktop\BaseCross-master\SimplSample015\media\Shaders\PSPCStatic.cso" C:\USERS\TAKUTO\DESKTOP\BASECROSS-MASTER\SIMPLSAMPLE015\DXSHARED\SHADERS\PSPCSTATIC.HLSL
^C:\USERS\TAKUTO\DESKTOP\BASECROSS-MASTER\SIMPLSAMPLE015\DXSHARED\SHADERS\PSPCTSPRITE.HLSL
/nologo /E"main" /T ps_5_0 /Fo "C:\Users\takuto\Desktop\BaseCross-master\SimplSample015\media\Shaders\PSPCTSprite.cso" C:\USERS\TAKUTO\DESKTOP\BASECROSS-MASTER\SIMPLSAMPLE015\DXSHARED\SHADERS\PSPCTSPRITE.HLSL
^C:\USERS\TAKUTO\DESKTOP\BASECROSS-MASTER\SIMPLSAMPLE015\DXSHARED\SHADERS\PSPCTSTATIC.HLSL
/nologo /E"main" /T ps_5_0 /Fo "C:\Users\takuto\Desktop\BaseCross-master\SimplSample015\media\Shaders\PSPCTStatic.cso" C:\USERS\TAKUTO\DESKTOP\BASECROSS-MASTER\SIMPLSAMPLE015\DXSHARED\SHADERS\PSPCTSTATIC.HLSL
^C:\USERS\TAKUTO\DESKTOP\BASECROSS-MASTER\SIMPLSAMPLE015\DXSHARED\SHADERS\PSPNTSTATIC.HLSL
/nologo /E"main" /T ps_5_0 /Fo "C:\Users\takuto\Desktop\BaseCross-master\SimplSample015\media\Shaders\PSPNTStatic.cso" C:\USERS\TAKUTO\DESKTOP\BASECROSS-MASTER\SIMPLSAMPLE015\DXSHARED\SHADERS\PSPNTSTATIC.HLSL
^C:\USERS\TAKUTO\DESKTOP\BASECROSS-MASTER\SIMPLSAMPLE015\DXSHARED\SHADERS\PSPNTSTATICSHADOW.HLSL
/nologo /E"main" /T ps_5_0 /Fo "C:\Users\takuto\Desktop\BaseCross-master\SimplSample015\media\Shaders\PSPNTStaticShadow.cso" C:\USERS\TAKUTO\DESKTOP\BASECROSS-MASTER\SIMPLSAMPLE015\DXSHARED\SHADERS\PSPNTSTATICSHADOW.HLSL
^C:\USERS\TAKUTO\DESKTOP\BASECROSS-MASTER\SIMPLSAMPLE015\DXSHARED\SHADERS\PSPNTSTATICSHADOW2.HLSL
/nologo /E"main" /T ps_5_0 /Fo "C:\Users\takuto\Desktop\BaseCross-master\SimplSample015\media\Shaders\PSPNTStaticShadow2.cso" C:\USERS\TAKUTO\DESKTOP\BASECROSS-MASTER\SIMPLSAMPLE015\DXSHARED\SHADERS\PSPNTSTATICSHADOW2.HLSL
^C:\USERS\TAKUTO\DESKTOP\BASECROSS-MASTER\SIMPLSAMPLE015\DXSHARED\SHADERS\PSPTSPRITE.HLSL
/nologo /E"main" /T ps_5_0 /Fo "C:\Users\takuto\Desktop\BaseCross-master\SimplSample015\media\Shaders\PSPTSprite.cso" C:\USERS\TAKUTO\DESKTOP\BASECROSS-MASTER\SIMPLSAMPLE015\DXSHARED\SHADERS\PSPTSPRITE.HLSL
^C:\USERS\TAKUTO\DESKTOP\BASECROSS-MASTER\SIMPLSAMPLE015\DXSHARED\SHADERS\VSPCSPRITE.HLSL
/nologo /E"main" /T vs_5_0 /Fo "C:\Users\takuto\Desktop\BaseCross-master\SimplSample015\media\Shaders\VSPCSprite.cso" C:\USERS\TAKUTO\DESKTOP\BASECROSS-MASTER\SIMPLSAMPLE015\DXSHARED\SHADERS\VSPCSPRITE.HLSL
^C:\USERS\TAKUTO\DESKTOP\BASECROSS-MASTER\SIMPLSAMPLE015\DXSHARED\SHADERS\VSPCSTATIC.HLSL
/nologo /E"main" /T vs_5_0 /Fo "C:\Users\takuto\Desktop\BaseCross-master\SimplSample015\media\Shaders\VSPCStatic.cso" C:\USERS\TAKUTO\DESKTOP\BASECROSS-MASTER\SIMPLSAMPLE015\DXSHARED\SHADERS\VSPCSTATIC.HLSL
^C:\USERS\TAKUTO\DESKTOP\BASECROSS-MASTER\SIMPLSAMPLE015\DXSHARED\SHADERS\VSPCTINSTANCE.HLSL
/nologo /E"main" /T vs_5_0 /Fo "C:\Users\takuto\Desktop\BaseCross-master\SimplSample015\media\Shaders\VSPCTInstance.cso" C:\USERS\TAKUTO\DESKTOP\BASECROSS-MASTER\SIMPLSAMPLE015\DXSHARED\SHADERS\VSPCTINSTANCE.HLSL
^C:\USERS\TAKUTO\DESKTOP\BASECROSS-MASTER\SIMPLSAMPLE015\DXSHARED\SHADERS\VSPCTSPRITE.HLSL
/nologo /E"main" /T vs_5_0 /Fo "C:\Users\takuto\Desktop\BaseCross-master\SimplSample015\media\Shaders\VSPCTSprite.cso" C:\USERS\TAKUTO\DESKTOP\BASECROSS-MASTER\SIMPLSAMPLE015\DXSHARED\SHADERS\VSPCTSPRITE.HLSL
^C:\USERS\TAKUTO\DESKTOP\BASECROSS-MASTER\SIMPLSAMPLE015\DXSHARED\SHADERS\VSPCTSTATIC.HLSL
/nologo /E"main" /T vs_5_0 /Fo "C:\Users\takuto\Desktop\BaseCross-master\SimplSample015\media\Shaders\VSPCTStatic.cso" C:\USERS\TAKUTO\DESKTOP\BASECROSS-MASTER\SIMPLSAMPLE015\DXSHARED\SHADERS\VSPCTSTATIC.HLSL
^C:\USERS\TAKUTO\DESKTOP\BASECROSS-MASTER\SIMPLSAMPLE015\DXSHARED\SHADERS\VSPNTSTATIC.HLSL
/nologo /E"main" /T vs_5_0 /Fo "C:\Users\takuto\Desktop\BaseCross-master\SimplSample015\media\Shaders\VSPNTStatic.cso" C:\USERS\TAKUTO\DESKTOP\BASECROSS-MASTER\SIMPLSAMPLE015\DXSHARED\SHADERS\VSPNTSTATIC.HLSL
^C:\USERS\TAKUTO\DESKTOP\BASECROSS-MASTER\SIMPLSAMPLE015\DXSHARED\SHADERS\VSPNTSTATICSHADOW.HLSL
/nologo /E"main" /T vs_5_0 /Fo "C:\Users\takuto\Desktop\BaseCross-master\SimplSample015\media\Shaders\VSPNTStaticShadow.cso" C:\USERS\TAKUTO\DESKTOP\BASECROSS-MASTER\SIMPLSAMPLE015\DXSHARED\SHADERS\VSPNTSTATICSHADOW.HLSL
^C:\USERS\TAKUTO\DESKTOP\BASECROSS-MASTER\SIMPLSAMPLE015\DXSHARED\SHADERS\VSPTSPRITE.HLSL
/nologo /E"main" /T vs_5_0 /Fo "C:\Users\takuto\Desktop\BaseCross-master\SimplSample015\media\Shaders\VSPTSprite.cso" C:\USERS\TAKUTO\DESKTOP\BASECROSS-MASTER\SIMPLSAMPLE015\DXSHARED\SHADERS\VSPTSPRITE.HLSL
^C:\USERS\TAKUTO\DESKTOP\BASECROSS-MASTER\SIMPLSAMPLE015\DXSHARED\SHADERS\VSSHADOWMAP.HLSL
/nologo /E"main" /T vs_5_0 /Fo "C:\Users\takuto\Desktop\BaseCross-master\SimplSample015\media\Shaders\VSShadowmap.cso" C:\USERS\TAKUTO\DESKTOP\BASECROSS-MASTER\SIMPLSAMPLE015\DXSHARED\SHADERS\VSSHADOWMAP.HLSL
^C:\USERS\TAKUTO\DESKTOP\BASECROSS-MASTER\SIMPLSAMPLE015\DXSHARED\SHADERS\VSSHADOWMAPBONE.HLSL
/nologo /E"main" /T vs_5_0 /Fo "C:\Users\takuto\Desktop\BaseCross-master\SimplSample015\media\Shaders\VSShadowmapBone.cso" C:\USERS\TAKUTO\DESKTOP\BASECROSS-MASTER\SIMPLSAMPLE015\DXSHARED\SHADERS\VSSHADOWMAPBONE.HLSL
^C:\USERS\YOICHIROU\DOCUMENTS\LTEAM_SEISAKU\LTEAM_SEISAKU\DXSHARED\SHADERS\PSPCSPRITE.HLSL
/nologo /E"main" /T ps_5_0 /Fo "C:\Users\yoichirou\Documents\lteam_seisaku\Lteam_Seisaku\media\Shaders\PSPCSprite.cso" C:\USERS\YOICHIROU\DOCUMENTS\LTEAM_SEISAKU\LTEAM_SEISAKU\DXSHARED\SHADERS\PSPCSPRITE.HLSL
^C:\USERS\YOICHIROU\DOCUMENTS\LTEAM_SEISAKU\LTEAM_SEISAKU\DXSHARED\SHADERS\PSPCSTATIC.HLSL
/nologo /E"main" /T ps_5_0 /Fo "C:\Users\yoichirou\Documents\lteam_seisaku\Lteam_Seisaku\media\Shaders\PSPCStatic.cso" C:\USERS\YOICHIROU\DOCUMENTS\LTEAM_SEISAKU\LTEAM_SEISAKU\DXSHARED\SHADERS\PSPCSTATIC.HLSL
^C:\USERS\YOICHIROU\DOCUMENTS\LTEAM_SEISAKU\LTEAM_SEISAKU\DXSHARED\SHADERS\PSPCTSPRITE.HLSL
/nologo /E"main" /T ps_5_0 /Fo "C:\Users\yoichirou\Documents\lteam_seisaku\Lteam_Seisaku\media\Shaders\PSPCTSprite.cso" C:\USERS\YOICHIROU\DOCUMENTS\LTEAM_SEISAKU\LTEAM_SEISAKU\DXSHARED\SHADERS\PSPCTSPRITE.HLSL
^C:\USERS\YOICHIROU\DOCUMENTS\LTEAM_SEISAKU\LTEAM_SEISAKU\DXSHARED\SHADERS\PSPCTSTATIC.HLSL
/nologo /E"main" /T ps_5_0 /Fo "C:\Users\yoichirou\Documents\lteam_seisaku\Lteam_Seisaku\media\Shaders\PSPCTStatic.cso" C:\USERS\YOICHIROU\DOCUMENTS\LTEAM_SEISAKU\LTEAM_SEISAKU\DXSHARED\SHADERS\PSPCTSTATIC.HLSL
^C:\USERS\YOICHIROU\DOCUMENTS\LTEAM_SEISAKU\LTEAM_SEISAKU\DXSHARED\SHADERS\PSPNTSTATIC.HLSL
/nologo /E"main" /T ps_5_0 /Fo "C:\Users\yoichirou\Documents\lteam_seisaku\Lteam_Seisaku\media\Shaders\PSPNTStatic.cso" C:\USERS\YOICHIROU\DOCUMENTS\LTEAM_SEISAKU\LTEAM_SEISAKU\DXSHARED\SHADERS\PSPNTSTATIC.HLSL
^C:\USERS\YOICHIROU\DOCUMENTS\LTEAM_SEISAKU\LTEAM_SEISAKU\DXSHARED\SHADERS\PSPNTSTATICSHADOW.HLSL
/nologo /E"main" /T ps_5_0 /Fo "C:\Users\yoichirou\Documents\lteam_seisaku\Lteam_Seisaku\media\Shaders\PSPNTStaticShadow.cso" C:\USERS\YOICHIROU\DOCUMENTS\LTEAM_SEISAKU\LTEAM_SEISAKU\DXSHARED\SHADERS\PSPNTSTATICSHADOW.HLSL
^C:\USERS\YOICHIROU\DOCUMENTS\LTEAM_SEISAKU\LTEAM_SEISAKU\DXSHARED\SHADERS\PSPNTSTATICSHADOW2.HLSL
/nologo /E"main" /T ps_5_0 /Fo "C:\Users\yoichirou\Documents\lteam_seisaku\Lteam_Seisaku\media\Shaders\PSPNTStaticShadow2.cso" C:\USERS\YOICHIROU\DOCUMENTS\LTEAM_SEISAKU\LTEAM_SEISAKU\DXSHARED\SHADERS\PSPNTSTATICSHADOW2.HLSL
^C:\USERS\YOICHIROU\DOCUMENTS\LTEAM_SEISAKU\LTEAM_SEISAKU\DXSHARED\SHADERS\PSPTSPRITE.HLSL
/nologo /E"main" /T ps_5_0 /Fo "C:\Users\yoichirou\Documents\lteam_seisaku\Lteam_Seisaku\media\Shaders\PSPTSprite.cso" C:\USERS\YOICHIROU\DOCUMENTS\LTEAM_SEISAKU\LTEAM_SEISAKU\DXSHARED\SHADERS\PSPTSPRITE.HLSL
^C:\USERS\YOICHIROU\DOCUMENTS\LTEAM_SEISAKU\LTEAM_SEISAKU\DXSHARED\SHADERS\VSPCSPRITE.HLSL
/nologo /E"main" /T vs_5_0 /Fo "C:\Users\yoichirou\Documents\lteam_seisaku\Lteam_Seisaku\media\Shaders\VSPCSprite.cso" C:\USERS\YOICHIROU\DOCUMENTS\LTEAM_SEISAKU\LTEAM_SEISAKU\DXSHARED\SHADERS\VSPCSPRITE.HLSL
^C:\USERS\YOICHIROU\DOCUMENTS\LTEAM_SEISAKU\LTEAM_SEISAKU\DXSHARED\SHADERS\VSPCSTATIC.HLSL
/nologo /E"main" /T vs_5_0 /Fo "C:\Users\yoichirou\Documents\lteam_seisaku\Lteam_Seisaku\media\Shaders\VSPCStatic.cso" C:\USERS\YOICHIROU\DOCUMENTS\LTEAM_SEISAKU\LTEAM_SEISAKU\DXSHARED\SHADERS\VSPCSTATIC.HLSL
^C:\USERS\YOICHIROU\DOCUMENTS\LTEAM_SEISAKU\LTEAM_SEISAKU\DXSHARED\SHADERS\VSPCTINSTANCE.HLSL
/nologo /E"main" /T vs_5_0 /Fo "C:\Users\yoichirou\Documents\lteam_seisaku\Lteam_Seisaku\media\Shaders\VSPCTInstance.cso" C:\USERS\YOICHIROU\DOCUMENTS\LTEAM_SEISAKU\LTEAM_SEISAKU\DXSHARED\SHADERS\VSPCTINSTANCE.HLSL
^C:\USERS\YOICHIROU\DOCUMENTS\LTEAM_SEISAKU\LTEAM_SEISAKU\DXSHARED\SHADERS\VSPCTSPRITE.HLSL
/nologo /E"main" /T vs_5_0 /Fo "C:\Users\yoichirou\Documents\lteam_seisaku\Lteam_Seisaku\media\Shaders\VSPCTSprite.cso" C:\USERS\YOICHIROU\DOCUMENTS\LTEAM_SEISAKU\LTEAM_SEISAKU\DXSHARED\SHADERS\VSPCTSPRITE.HLSL
^C:\USERS\YOICHIROU\DOCUMENTS\LTEAM_SEISAKU\LTEAM_SEISAKU\DXSHARED\SHADERS\VSPCTSTATIC.HLSL
/nologo /E"main" /T vs_5_0 /Fo "C:\Users\yoichirou\Documents\lteam_seisaku\Lteam_Seisaku\media\Shaders\VSPCTStatic.cso" C:\USERS\YOICHIROU\DOCUMENTS\LTEAM_SEISAKU\LTEAM_SEISAKU\DXSHARED\SHADERS\VSPCTSTATIC.HLSL
^C:\USERS\YOICHIROU\DOCUMENTS\LTEAM_SEISAKU\LTEAM_SEISAKU\DXSHARED\SHADERS\VSPNTSTATIC.HLSL
/nologo /E"main" /T vs_5_0 /Fo "C:\Users\yoichirou\Documents\lteam_seisaku\Lteam_Seisaku\media\Shaders\VSPNTStatic.cso" C:\USERS\YOICHIROU\DOCUMENTS\LTEAM_SEISAKU\LTEAM_SEISAKU\DXSHARED\SHADERS\VSPNTSTATIC.HLSL
^C:\USERS\YOICHIROU\DOCUMENTS\LTEAM_SEISAKU\LTEAM_SEISAKU\DXSHARED\SHADERS\VSPNTSTATICSHADOW.HLSL
/nologo /E"main" /T vs_5_0 /Fo "C:\Users\yoichirou\Documents\lteam_seisaku\Lteam_Seisaku\media\Shaders\VSPNTStaticShadow.cso" C:\USERS\YOICHIROU\DOCUMENTS\LTEAM_SEISAKU\LTEAM_SEISAKU\DXSHARED\SHADERS\VSPNTSTATICSHADOW.HLSL
^C:\USERS\YOICHIROU\DOCUMENTS\LTEAM_SEISAKU\LTEAM_SEISAKU\DXSHARED\SHADERS\VSPTSPRITE.HLSL
/nologo /E"main" /T vs_5_0 /Fo "C:\Users\yoichirou\Documents\lteam_seisaku\Lteam_Seisaku\media\Shaders\VSPTSprite.cso" C:\USERS\YOICHIROU\DOCUMENTS\LTEAM_SEISAKU\LTEAM_SEISAKU\DXSHARED\SHADERS\VSPTSPRITE.HLSL
^C:\USERS\YOICHIROU\DOCUMENTS\LTEAM_SEISAKU\LTEAM_SEISAKU\DXSHARED\SHADERS\VSSHADOWMAP.HLSL
/nologo /E"main" /T vs_5_0 /Fo "C:\Users\yoichirou\Documents\lteam_seisaku\Lteam_Seisaku\media\Shaders\VSShadowmap.cso" C:\USERS\YOICHIROU\DOCUMENTS\LTEAM_SEISAKU\LTEAM_SEISAKU\DXSHARED\SHADERS\VSSHADOWMAP.HLSL
^C:\USERS\YOICHIROU\DOCUMENTS\LTEAM_SEISAKU\LTEAM_SEISAKU\DXSHARED\SHADERS\VSSHADOWMAPBONE.HLSL
/nologo /E"main" /T vs_5_0 /Fo "C:\Users\yoichirou\Documents\lteam_seisaku\Lteam_Seisaku\media\Shaders\VSShadowmapBone.cso" C:\USERS\YOICHIROU\DOCUMENTS\LTEAM_SEISAKU\LTEAM_SEISAKU\DXSHARED\SHADERS\VSSHADOWMAPBONE.HLSL
